0411/simulation/qsim/0411.msim.vcd
$comment
	File created using the following command:
		vcd file 0411.msim.vcd -direction
$end
$date
	Sun May 05 09:10:30 2019
$end
$version
	ModelSim Version 10.5b
$end
$timescale
	1ps
$end

$scope module run_vlg_vec_tst $end
$var reg 1 ! CLOCK_50 $end
$var wire 1 " clkout $end

$scope module i1 $end
$var wire 1 # gnd $end
$var wire 1 $ vcc $end
$var wire 1 % unknown $end
$var tri1 1 & devclrn $end
$var tri1 1 ' devpor $end
$var tri1 1 ( devoe $end
$var wire 1 ) clkout~output_o $end
$var wire 1 * CLOCK_50~input_o $end
$var wire 1 + CLOCK_50~inputclkctrl_outclk $end
$var wire 1 , Add0~0_combout $end
$var wire 1 - Add0~1 $end
$var wire 1 . Add0~2_combout $end
$var wire 1 / Add0~3 $end
$var wire 1 0 Add0~4_combout $end
$var wire 1 1 Add0~5 $end
$var wire 1 2 Add0~6_combout $end
$var wire 1 3 Add0~7 $end
$var wire 1 4 Add0~8_combout $end
$var wire 1 5 Add0~9 $end
$var wire 1 6 Add0~10_combout $end
$var wire 1 7 Add0~11 $end
$var wire 1 8 Add0~12_combout $end
$var wire 1 9 counter~0_combout $end
$var wire 1 : Add0~13 $end
$var wire 1 ; Add0~14_combout $end
$var wire 1 < counter~1_combout $end
$var wire 1 = Add0~15 $end
$var wire 1 > Add0~16_combout $end
$var wire 1 ? counter~2_combout $end
$var wire 1 @ Add0~17 $end
$var wire 1 A Add0~18_combout $end
$var wire 1 B counter~3_combout $end
$var wire 1 C Add0~19 $end
$var wire 1 D Add0~20_combout $end
$var wire 1 E counter~4_combout $end
$var wire 1 F Add0~21 $end
$var wire 1 G Add0~22_combout $end
$var wire 1 H Add0~23 $end
$var wire 1 I Add0~24_combout $end
$var wire 1 J Add0~25 $end
$var wire 1 K Add0~26_combout $end
$var wire 1 L Add0~27 $end
$var wire 1 M Add0~28_combout $end
$var wire 1 N Add0~29 $end
$var wire 1 O Add0~30_combout $end
$var wire 1 P counter~5_combout $end
$var wire 1 Q Add0~31 $end
$var wire 1 R Add0~32_combout $end
$var wire 1 S Add0~33 $end
$var wire 1 T Add0~34_combout $end
$var wire 1 U counter~6_combout $end
$var wire 1 V Add0~35 $end
$var wire 1 W Add0~36_combout $end
$var wire 1 X Add0~37 $end
$var wire 1 Y Add0~38_combout $end
$var wire 1 Z Add0~39 $end
$var wire 1 [ Add0~40_combout $end
$var wire 1 \ Add0~41 $end
$var wire 1 ] Add0~42_combout $end
$var wire 1 ^ Add0~43 $end
$var wire 1 _ Add0~44_combout $end
$var wire 1 ` Add0~45 $end
$var wire 1 a Add0~46_combout $end
$var wire 1 b counter~7_combout $end
$var wire 1 c Equal0~6_combout $end
$var wire 1 d Add0~47 $end
$var wire 1 e Add0~48_combout $end
$var wire 1 f Equal0~5_combout $end
$var wire 1 g Equal0~3_combout $end
$var wire 1 h Equal0~2_combout $end
$var wire 1 i Equal0~0_combout $end
$var wire 1 j Equal0~1_combout $end
$var wire 1 k Equal0~4_combout $end
$var wire 1 l Equal0~7_combout $end
$var wire 1 m clkout~0_combout $end
$var wire 1 n clkout~reg0_q $end
$var wire 1 o counter [24] $end
$var wire 1 p counter [23] $end
$var wire 1 q counter [22] $end
$var wire 1 r counter [21] $end
$var wire 1 s counter [20] $end
$var wire 1 t counter [19] $end
$var wire 1 u counter [18] $end
$var wire 1 v counter [17] $end
$var wire 1 w counter [16] $end
$var wire 1 x counter [15] $end
$var wire 1 y counter [14] $end
$var wire 1 z counter [13] $end
$var wire 1 { counter [12] $end
$var wire 1 | counter [11] $end
$var wire 1 } counter [10] $end
$var wire 1 ~ counter [9] $end
$var wire 1 !! counter [8] $end
$var wire 1 "! counter [7] $end
$var wire 1 #! counter [6] $end
$var wire 1 $! counter [5] $end
$var wire 1 %! counter [4] $end
$var wire 1 &! counter [3] $end
$var wire 1 '! counter [2] $end
$var wire 1 (! counter [1] $end
$var wire 1 )! counter [0] $end
$upscope $end
$upscope $end
$enddefinitions $end
#0
$dumpvars
0!
x"
0#
1$
x%
1&
1'
1(
x)
0*
x+
x,
x-
x.
x/
x0
x1
x2
x3
x4
x5
x6
x7
x8
x9
x:
x;
x<
x=
x>
x?
x@
xA
xB
xC
xD
xE
xF
xG
xH
xI
xJ
xK
xL
xM
xN
xO
xP
xQ
xR
xS
xT
xU
xV
xW
xX
xY
xZ
x[
x\
x]
x^
x_
x`
xa
xb
xc
xd
xe
xf
xg
xh
xi
xj
xk
xl
xm
0n
0)!
0(!
0'!
0&!
0%!
0$!
0#!
0"!
0!!
0~
0}
0|
0{
0z
0y
0x
0w
0v
0u
0t
0s
0r
0q
0p
0o
$end
#173
0+
#752
0-
#792
1g
#795
1i
#798
1,
#818
1/
#884
01
#950
13
#955
1j
#1016
05
#1082
17
#1144
1f
#1148
0:
#1170
1c
#1214
1=
#1268
1h
#1280
0@
#1288
1.
#1346
1C
#1354
10
#1412
0F
#1420
12
#1478
1H
#1486
14
#1544
0J
#1552
16
#1610
1L
#1618
18
#1676
0N
#1684
1;
#1742
1Q
#1750
1>
#1806
1k
#1808
0S
#1816
1A
#1874
1V
#1882
1D
#1940
0X
#1948
1G
#2006
1Z
#2014
1I
#2072
0\
#2080
1K
#2138
1^
#2146
1M
#2168
1l
#2204
0`
#2212
1O
#2270
1d
#2278
1R
#2344
1T
#2410
1W
#2476
1Y
#2542
1[
#2583
0U
#2600
1m
#2608
1]
#2674
1_
#2740
1a
#2806
1e
#2864
0E
#2865
0?
#2900
0P
#3064
09
#3065
0B
#3066
0<
#3097
0b
#4006
0)
0"
#20000
1!
#20720
1*
#20907
1+
#23265
1{
1z
1y
1w
1u
1t
1s
1r
1q
#23272
1)!
1(!
1'!
1&!
1%!
1$!
1|
#23697
1o
#23699
1n
#23807
0g
#23812
0i
#23880
0c
#23887
0j
#23928
0L
#23934
0/
#23937
03
#23945
0Z
0^
#23948
0H
0I
#23951
07
#23966
0R
#23975
0W
#23990
0,
#23999
0K
#24003
0.
#24008
02
#24016
0]
0Y
#24017
1:
0G
#24022
06
#24028
0f
#24064
11
1J
#24065
1N
#24073
1X
#24074
1-
#24082
1S
1\
1`
#24083
0=
#24088
15
#24114
0e
#24128
0m
#24131
0Q
#24148
0V
0d
#24149
1@
#24215
0C
#24281
1F
#24396
0h
#24463
08
#24484
1I
#24515
0l
#24529
0;
#24577
0O
#24594
0a
0T
#24595
0>
#24600
1K
12
#24609
1Y
#24610
1.
#24618
1]
#24624
16
#24661
0A
#24667
1R
#24684
1e
1W
#24727
0D
#24780
0k
#24817
1G
#24982
1U
#24984
1m
#25259
1E
#25260
1?
#25263
0U
#25441
0?
#25534
0E
#27696
1)
1"
#40000
0!
#40826
0*
#40999
0+
#60000
1!
#60720
1*
#60907
1+
#63272
0)!
#64024
0-
#64070
1,
#64536
0.
#80000
0!
#80826
0*
#80999
0+
#100000
1!
#100720
1*
#100907
1+
#103272
1)!
0(!
#103990
0,
#104074
1-
#120000
0!
#120826
0*
#120999
0+
#140000
1!
#140720
1*
#140907
1+
#143272
0)!
#144024
0-
#144070
1,
#144090
1/
#144560
1.
#144602
00
#160000
0!
#160826
0*
#160999
0+
#180000
1!
#180720
1*
#180907
1+
#183272
1)!
1(!
0'!
#183934
0/
#183990
0,
#184003
0.
#184074
1-
#184610
1.
#200000
0!
#200826
0*
#200999
0+
#220000
1!
#220720
1*
#220907
1+
#223272
0)!
#224024
0-
#224070
1,
#224536
0.
#240000
0!
#240826
0*
#240999
0+
#260000
1!
#260720
1*
#260907
1+
#263272
1)!
0(!
#263990
0,
#264074
1-
#280000
0!
#280826
0*
#280999
0+
#300000
1!
#300720
1*
#300907
1+
#303272
0)!
#304024
0-
#304070
1,
#304090
1/
#304156
01
#304560
1.
#304626
10
#304668
02
#320000
0!
#320826
0*
#320999
0+
#340000
1!
#340720
1*
#340907
1+
#343272
1)!
1(!
1'!
0&!
#343934
0/
#343990
0,
#344003
0.
#344064
11
#344074
1-
#344610
1.
#360000
0!
#360826
0*
#360999
0+
#380000
1!
#380720
1*
#380907
1+
#383272
0)!
#384024
0-
#384070
1,
#384536
0.
#400000
0!
#400826
0*
#400999
0+
#420000
1!
#420720
1*
#420907
1+
#423272
1)!
0(!
#423990
0,
#424074
1-
#440000
0!
#440826
0*
#440999
0+
#460000
1!
#460720
1*
#460907
1+
#463272
0)!
#464024
0-
#464070
1,
#464090
1/
#464560
1.
#464602
00
#480000
0!
#480826
0*
#480999
0+
#500000
1!
#500720
1*
#500907
1+
#503272
1)!
1(!
0'!
#503934
0/
#503990
0,
#504003
0.
#504074
1-
#504610
1.
#520000
0!
#520826
0*
#520999
0+
#540000
1!
#540720
1*
#540907
1+
#543272
0)!
#544024
0-
#544070
1,
#544536
0.
#560000
0!
#560826
0*
#560999
0+
#580000
1!
#580720
1*
#580907
1+
#583272
1)!
0(!
#583990
0,
#584074
1-
#600000
0!
#600826
0*
#600999
0+
#620000
1!
#620720
1*
#620907
1+
#623272
0)!
#624024
0-
#624058
1i
#624070
1,
#624090
1/
#624156
01
#624222
13
#624560
1.
#624626
10
#624692
12
#624734
04
#640000
0!
#640826
0*
#640999
0+
#660000
1!
#660720
1*
#660907
1+
#663272
1)!
1(!
1'!
1&!
0%!
#663812
0i
#663934
0/
#663937
03
#663990
0,
#664003
0.
#664008
02
#664064
11
#664074
1-
#664600
12
#664610
1.
#680000
0!
#680826
0*
#680999
0+
#700000
1!
#700720
1*
#700907
1+
#703272
0)!
#704024
0-
#704070
1,
#704536
0.
#720000
0!
#720826
0*
#720999
0+
#740000
1!
#740720
1*
#740907
1+
#743272
1)!
0(!
#743990
0,
#744074
1-
#760000
0!
#760826
0*
#760999
0+
#780000
1!
#780720
1*
#780907
1+
#783272
0)!
#784024
0-
#784070
1,
#784090
1/
#784560
1.
#784602
00
#800000
0!
#800826
0*
#800999
0+
#820000
1!
#820720
1*
#820907
1+
#823272
1)!
1(!
0'!
#823934
0/
#823990
0,
#824003
0.
#824074
1-
#824610
1.
#840000
0!
#840826
0*
#840999
0+
#860000
1!
#860720
1*
#860907
1+
#863272
0)!
#864024
0-
#864070
1,
#864536
0.
#880000
0!
#880826
0*
#880999
0+
#900000
1!
#900720
1*
#900907
1+
#903272
1)!
0(!
#903990
0,
#904074
1-
#920000
0!
#920826
0*
#920999
0+
#940000
1!
#940720
1*
#940907
1+
#943272
0)!
#944024
0-
#944070
1,
#944090
1/
#944156
01
#944560
1.
#944626
10
#944668
02
#960000
0!
#960826
0*
#960999
0+
#980000
1!
#980720
1*
#980907
1+
#983272
1)!
1(!
1'!
0&!
#983934
0/
#983990
0,
#984003
0.
#984064
11
#984074
1-
#984610
1.
#1000000
0!
#1000826
0*
#1000999
0+
#1020000
1!
#1020720
1*
#1020907
1+
#1023272
0)!
#1024024
0-
#1024070
1,
#1024536
0.
#1040000
0!
#1040826
0*
#1040999
0+
#1060000
1!
#1060720
1*
#1060907
1+
#1063272
1)!
0(!
#1063990
0,
#1064074
1-
#1080000
0!
#1080826
0*
#1080999
0+
#1100000
1!
#1100720
1*
#1100907
1+
#1103272
0)!
#1104024
0-
#1104070
1,
#1104090
1/
#1104560
1.
#1104602
00
#1120000
0!
#1120826
0*
#1120999
0+
#1140000
1!
#1140720
1*
#1140907
1+
#1143272
1)!
1(!
0'!
#1143934
0/
#1143990
0,
#1144003
0.
#1144074
1-
#1144610
1.
#1160000
0!
#1160826
0*
#1160999
0+
#1180000
1!
#1180720
1*
#1180907
1+
#1183272
0)!
#1184024
0-
#1184070
1,
#1184536
0.
#1200000
0!
#1200826
0*
#1200999
0+
#1220000
1!
#1220720
1*
#1220907
1+
#1223272
1)!
0(!
#1223990
0,
#1224074
1-
#1240000
0!
#1240826
0*
#1240999
0+
#1260000
1!
#1260720
1*
#1260907
1+
#1263272
0)!
#1264024
0-
#1264058
1i
#1264070
1,
#1264090
1/
#1264156
01
#1264222
13
#1264288
05
#1264560
1.
#1264626
10
#1264692
12
#1264758
14
#1264800
06
#1280000
0!
#1280826
0*
#1280999
0+
#1300000
1!
#1300720
1*
#1300907
1+
#1303272
1)!
1(!
1'!
1&!
1%!
0$!
#1303812
0i
#1303934
0/
#1303937
03
#1303990
0,
#1304003
0.
#1304008
02
#1304064
11
#1304074
1-
#1304088
15
#1304600
12
#1304610
1.
#1320000
0!
#1320826
0*
#1320999
0+
#1340000
1!
#1340720
1*
#1340907
1+
#1343272
0)!
#1344024
0-
#1344070
1,
#1344536
0.
#1360000
0!
#1360826
0*
#1360999
0+
#1380000
1!
#1380720
1*
#1380907
1+
#1383272
1)!
0(!
#1383990
0,
#1384074
1-
#1400000
0!
#1400826
0*
#1400999
0+
#1420000
1!
#1420720
1*
#1420907
1+
#1423272
0)!
#1424024
0-
#1424070
1,
#1424090
1/
#1424560
1.
#1424602
00
#1440000
0!
#1440826
0*
#1440999
0+
#1460000
1!
#1460720
1*
#1460907
1+
#1463272
1)!
1(!
0'!
#1463934
0/
#1463990
0,
#1464003
0.
#1464074
1-
#1464610
1.
#1480000
0!
#1480826
0*
#1480999
0+
#1500000
1!
#1500720
1*
#1500907
1+
#1503272
0)!
#1504024
0-
#1504070
1,
#1504536
0.
#1520000
0!
#1520826
0*
#1520999
0+
#1540000
1!
#1540720
1*
#1540907
1+
#1543272
1)!
0(!
#1543990
0,
#1544074
1-
#1560000
0!
#1560826
0*
#1560999
0+
#1580000
1!
#1580720
1*
#1580907
1+
#1583272
0)!
#1584024
0-
#1584070
1,
#1584090
1/
#1584156
01
#1584560
1.
#1584626
10
#1584668
02
#1600000
0!
#1600826
0*
#1600999
0+
#1620000
1!
#1620720
1*
#1620907
1+
#1623272
1)!
1(!
1'!
0&!
#1623934
0/
#1623990
0,
#1624003
0.
#1624064
11
#1624074
1-
#1624610
1.
#1640000
0!
#1640826
0*
#1640999
0+
#1660000
1!
#1660720
1*
#1660907
1+
#1663272
0)!
#1664024
0-
#1664070
1,
#1664536
0.
#1680000
0!
#1680826
0*
#1680999
0+
#1700000
1!
#1700720
1*
#1700907
1+
#1703272
1)!
0(!
#1703990
0,
#1704074
1-
#1720000
0!
#1720826
0*
#1720999
0+
#1740000
1!
#1740720
1*
#1740907
1+
#1743272
0)!
#1744024
0-
#1744070
1,
#1744090
1/
#1744560
1.
#1744602
00
#1760000
0!
#1760826
0*
#1760999
0+
#1780000
1!
#1780720
1*
#1780907
1+
#1783272
1)!
1(!
0'!
#1783934
0/
#1783990
0,
#1784003
0.
#1784074
1-
#1784610
1.
#1800000
0!
#1800826
0*
#1800999
0+
#1820000
1!
#1820720
1*
#1820907
1+
#1823272
0)!
#1824024
0-
#1824070
1,
#1824536
0.
#1840000
0!
#1840826
0*
#1840999
0+
#1860000
1!
#1860720
1*
#1860907
1+
#1863272
1)!
0(!
#1863990
0,
#1864074
1-
#1880000
0!
#1880826
0*
#1880999
0+
#1900000
1!
#1900720
1*
#1900907
1+
#1903272
0)!
#1904024
0-
#1904058
1i
#1904070
1,
#1904090
1/
#1904156
01
#1904222
13
#1904560
1.
#1904626
10
#1904692
12
#1904734
04
#1920000
0!
#1920826
0*
#1920999
0+
#1940000
1!
#1940720
1*
#1940907
1+
#1943272
1)!
1(!
1'!
1&!
0%!
#1943812
0i
#1943934
0/
#1943937
03
#1943990
0,
#1944003
0.
#1944008
02
#1944064
11
#1944074
1-
#1944217
1j
#1944600
12
#1944610
1.
#1960000
0!
#1960826
0*
#1960999
0+
#1980000
1!
#1980720
1*
#1980907
1+
#1983272
0)!
#1984024
0-
#1984070
1,
#1984536
0.
#2000000
0!
#2000826
0*
#2000999
0+
#2020000
1!
#2020720
1*
#2020907
1+
#2023272
1)!
0(!
#2023990
0,
#2024074
1-
#2040000
0!
#2040826
0*
#2040999
0+
#2060000
1!
#2060720
1*
#2060907
1+
#2063272
0)!
#2064024
0-
#2064070
1,
#2064090
1/
#2064560
1.
#2064602
00
#2080000
0!
#2080826
0*
#2080999
0+
#2100000
1!
#2100720
1*
#2100907
1+
#2103272
1)!
1(!
0'!
#2103934
0/
#2103990
0,
#2104003
0.
#2104074
1-
#2104610
1.
#2120000
0!
#2120826
0*
#2120999
0+
#2140000
1!
#2140720
1*
#2140907
1+
#2143272
0)!
#2144024
0-
#2144070
1,
#2144536
0.
#2160000
0!
#2160826
0*
#2160999
0+
#2180000
1!
#2180720
1*
#2180907
1+
#2183272
1)!
0(!
#2183990
0,
#2184074
1-
#2200000
0!
#2200826
0*
#2200999
0+
#2220000
1!
#2220720
1*
#2220907
1+
#2223272
0)!
#2224024
0-
#2224070
1,
#2224090
1/
#2224156
01
#2224560
1.
#2224626
10
#2224668
02
#2240000
0!
#2240826
0*
#2240999
0+
#2260000
1!
#2260720
1*
#2260907
1+
#2263272
1)!
1(!
1'!
0&!
#2263934
0/
#2263990
0,
#2264003
0.
#2264064
11
#2264074
1-
#2264610
1.
#2280000
0!
#2280826
0*
#2280999
0+
#2300000
1!
#2300720
1*
#2300907
1+
#2303272
0)!
#2304024
0-
#2304070
1,
#2304536
0.
#2320000
0!
#2320826
0*
#2320999
0+
#2340000
1!
#2340720
1*
#2340907
1+
#2343272
1)!
0(!
#2343990
0,
#2344074
1-
#2360000
0!
#2360826
0*
#2360999
0+
#2380000
1!
#2380720
1*
#2380907
1+
#2383272
0)!
#2384024
0-
#2384070
1,
#2384090
1/
#2384560
1.
#2384602
00
#2400000
0!
#2400826
0*
#2400999
0+
#2420000
1!
#2420720
1*
#2420907
1+
#2423272
1)!
1(!
0'!
#2423934
0/
#2423990
0,
#2424003
0.
#2424074
1-
#2424610
1.
#2440000
0!
#2440826
0*
#2440999
0+
#2460000
1!
#2460720
1*
#2460907
1+
#2463272
0)!
#2464024
0-
#2464070
1,
#2464536
0.
#2480000
0!
#2480826
0*
#2480999
0+
#2500000
1!
#2500720
1*
#2500907
1+
#2503272
1)!
0(!
#2503990
0,
#2504074
1-
#2520000
0!
#2520826
0*
#2520999
0+
#2540000
1!
#2540720
1*
#2540907
1+
#2543272
0)!
#2544024
0-
#2544058
1i
#2544070
1,
#2544090
1/
#2544156
01
#2544222
13
#2544288
05
#2544354
17
#2544420
0:
#2544486
1=
#2544552
0@
#2544560
1.
#2544618
1C
#2544626
10
#2544684
0F
#2544692
12
#2544758
14
#2544824
16
#2544890
18
#2544956
1;
#2545022
1>
#2545088
1A
#2545154
1D
#2545196
0G
#2545449
1<
#2545545
19
#2545581
1B
#2545885
1?
#2545976
1E
#2560000
0!
#2560826
0*
#2560999
0+
#2580000
1!
#2580720
1*
#2580907
1+
#2583266
1!!
1}
#2583272
1)!
1(!
1'!
1&!
1%!
1$!
1#!
1"!
1~
0|
#2583812
0i
#2583887
0j
#2583934
0/
#2583937
03
#2583951
07
#2583953
0=
#2583954
0C
#2583990
0,
#2584003
0.
#2584008
02
#2584019
1@
#2584020
1F
#2584022
06
#2584024
0;
#2584064
11
#2584074
1-
#2584080
1:
#2584088
15
#2584542
0<
#2584600
12
#2584610
1.
#2584616
1;
#2584624
16
#2585109
1<
#2600000
0!
#2600826
0*
#2600999
0+
#2620000
1!
#2620720
1*
#2620907
1+
#2623272
0)!
#2624024
0-
#2624070
1,
#2624536
0.
#2640000
0!
#2640826
0*
#2640999
0+
#2660000
1!
#2660720
1*
#2660907
1+
#2663272
1)!
0(!
#2663990
0,
#2664074
1-
#2680000
0!
#2680826
0*
#2680999
0+
#2700000
1!
#2700720
1*
#2700907
1+
#2703272
0)!
#2704024
0-
#2704070
1,
#2704090
1/
#2704560
1.
#2704602
00
#2720000
0!
#2720826
0*
#2720999
0+
#2740000
1!
#2740720
1*
#2740907
1+
#2743272
1)!
1(!
0'!
#2743934
0/
#2743990
0,
#2744003
0.
#2744074
1-
#2744610
1.
#2760000
0!
#2760826
0*
#2760999
0+
#2780000
1!
#2780720
1*
#2780907
1+
#2783272
0)!
#2784024
0-
#2784070
1,
#2784536
0.
#2800000
0!
#2800826
0*
#2800999
0+
#2820000
1!
#2820720
1*
#2820907
1+
#2823272
1)!
0(!
#2823990
0,
#2824074
1-
#2840000
0!
#2840826
0*
#2840999
0+
#2860000
1!
#2860720
1*
#2860907
1+
#2863272
0)!
#2864024
0-
#2864070
1,
#2864090
1/
#2864156
01
#2864560
1.
#2864626
10
#2864668
02
#2880000
0!
#2880826
0*
#2880999
0+
#2900000
1!
#2900720
1*
#2900907
1+
#2903272
1)!
1(!
1'!
0&!
#2903934
0/
#2903990
0,
#2904003
0.
#2904064
11
#2904074
1-
#2904610
1.
#2920000
0!
#2920826
0*
#2920999
0+
#2940000
1!
#2940720
1*
#2940907
1+
#2943272
0)!
#2944024
0-
#2944070
1,
#2944536
0.
#2960000
0!
#2960826
0*
#2960999
0+
#2980000
1!
#2980720
1*
#2980907
1+
#2983272
1)!
0(!
#2983990
0,
#2984074
1-
#3000000
0!
#3000826
0*
#3000999
0+
#3020000
1!
#3020720
1*
#3020907
1+
#3023272
0)!
#3024024
0-
#3024070
1,
#3024090
1/
#3024560
1.
#3024602
00
#3040000
0!
#3040826
0*
#3040999
0+
#3060000
1!
#3060720
1*
#3060907
1+
#3063272
1)!
1(!
0'!
#3063934
0/
#3063990
0,
#3064003
0.
#3064074
1-
#3064610
1.
#3080000
0!
#3080826
0*
#3080999
0+
#3100000
1!
#3100720
1*
#3100907
1+
#3103272
0)!
#3104024
0-
#3104070
1,
#3104536
0.
#3120000
0!
#3120826
0*
#3120999
0+
#3140000
1!
#3140720
1*
#3140907
1+
#3143272
1)!
0(!
#3143990
0,
#3144074
1-
#3160000
0!
#3160826
0*
#3160999
0+
#3180000
1!
#3180720
1*
#3180907
1+
#3183272
0)!
#3184024
0-
#3184058
1i
#3184070
1,
#3184090
1/
#3184156
01
#3184222
13
#3184560
1.
#3184626
10
#3184692
12
#3184734
04
#3200000
0!
#3200826
0*
#3200999
0+
#3220000
1!
#3220720
1*
#3220907
1+
#3223272
1)!
1(!
1'!
1&!
0%!
#3223812
0i
#3223934
0/
#3223937
03
#3223990
0,
#3224003
0.
#3224008
02
#3224064
11
#3224074
1-
#3224600
12
#3224610
1.
#3240000
0!
#3240826
0*
#3240999
0+
#3260000
1!
#3260720
1*
#3260907
1+
#3263272
0)!
#3264024
0-
#3264070
1,
#3264536
0.
#3280000
0!
#3280826
0*
#3280999
0+
#3300000
1!
#3300720
1*
#3300907
1+
#3303272
1)!
0(!
#3303990
0,
#3304074
1-
#3320000
0!
#3320826
0*
#3320999
0+
#3340000
1!
#3340720
1*
#3340907
1+
#3343272
0)!
#3344024
0-
#3344070
1,
#3344090
1/
#3344560
1.
#3344602
00
#3360000
0!
#3360826
0*
#3360999
0+
#3380000
1!
#3380720
1*
#3380907
1+
#3383272
1)!
1(!
0'!
#3383934
0/
#3383990
0,
#3384003
0.
#3384074
1-
#3384610
1.
#3400000
0!
#3400826
0*
#3400999
0+
#3420000
1!
#3420720
1*
#3420907
1+
#3423272
0)!
#3424024
0-
#3424070
1,
#3424536
0.
#3440000
0!
#3440826
0*
#3440999
0+
#3460000
1!
#3460720
1*
#3460907
1+
#3463272
1)!
0(!
#3463990
0,
#3464074
1-
#3480000
0!
#3480826
0*
#3480999
0+
#3500000
1!
#3500720
1*
#3500907
1+
#3503272
0)!
#3504024
0-
#3504070
1,
#3504090
1/
#3504156
01
#3504560
1.
#3504626
10
#3504668
02
#3520000
0!
#3520826
0*
#3520999
0+
#3540000
1!
#3540720
1*
#3540907
1+
#3543272
1)!
1(!
1'!
0&!
#3543934
0/
#3543990
0,
#3544003
0.
#3544064
11
#3544074
1-
#3544610
1.
#3560000
0!
#3560826
0*
#3560999
0+
#3580000
1!
#3580720
1*
#3580907
1+
#3583272
0)!
#3584024
0-
#3584070
1,
#3584536
0.
#3600000
0!
#3600826
0*
#3600999
0+
#3620000
1!
#3620720
1*
#3620907
1+
#3623272
1)!
0(!
#3623990
0,
#3624074
1-
#3640000
0!
#3640826
0*
#3640999
0+
#3660000
1!
#3660720
1*
#3660907
1+
#3663272
0)!
#3664024
0-
#3664070
1,
#3664090
1/
#3664560
1.
#3664602
00
#3680000
0!
#3680826
0*
#3680999
0+
#3700000
1!
#3700720
1*
#3700907
1+
#3703272
1)!
1(!
0'!
#3703934
0/
#3703990
0,
#3704003
0.
#3704074
1-
#3704610
1.
#3720000
0!
#3720826
0*
#3720999
0+
#3740000
1!
#3740720
1*
#3740907
1+
#3743272
0)!
#3744024
0-
#3744070
1,
#3744536
0.
#3760000
0!
#3760826
0*
#3760999
0+
#3780000
1!
#3780720
1*
#3780907
1+
#3783272
1)!
0(!
#3783990
0,
#3784074
1-
#3800000
0!
#3800826
0*
#3800999
0+
#3820000
1!
#3820720
1*
#3820907
1+
#3823272
0)!
#3824024
0-
#3824058
1i
#3824070
1,
#3824090
1/
#3824156
01
#3824222
13
#3824288
05
#3824560
1.
#3824626
10
#3824692
12
#3824758
14
#3824800
06
#3840000
0!
#3840826
0*
#3840999
0+
#3860000
1!
#3860720
1*
#3860907
1+
#3863272
1)!
1(!
1'!
1&!
1%!
0$!
#3863812
0i
#3863934
0/
#3863937
03
#3863990
0,
#3864003
0.
#3864008
02
#3864064
11
#3864074
1-
#3864088
15
#3864600
12
#3864610
1.
#3880000
0!
#3880826
0*
#3880999
0+
#3900000
1!
#3900720
1*
#3900907
1+
#3903272
0)!
#3904024
0-
#3904070
1,
#3904536
0.
#3920000
0!
#3920826
0*
#3920999
0+
#3940000
1!
#3940720
1*
#3940907
1+
#3943272
1)!
0(!
#3943990
0,
#3944074
1-
#3960000
0!
#3960826
0*
#3960999
0+
#3980000
1!
#3980720
1*
#3980907
1+
#3983272
0)!
#3984024
0-
#3984070
1,
#3984090
1/
#3984560
1.
#3984602
00
#4000000
0!
#4000826
0*
#4000999
0+
#4020000
1!
#4020720
1*
#4020907
1+
#4023272
1)!
1(!
0'!
#4023934
0/
#4023990
0,
#4024003
0.
#4024074
1-
#4024610
1.
#4040000
0!
#4040826
0*
#4040999
0+
#4060000
1!
#4060720
1*
#4060907
1+
#4063272
0)!
#4064024
0-
#4064070
1,
#4064536
0.
#4080000
0!
#4080826
0*
#4080999
0+
#4100000
1!
#4100720
1*
#4100907
1+
#4103272
1)!
0(!
#4103990
0,
#4104074
1-
#4120000
0!
#4120826
0*
#4120999
0+
#4140000
1!
#4140720
1*
#4140907
1+
#4143272
0)!
#4144024
0-
#4144070
1,
#4144090
1/
#4144156
01
#4144560
1.
#4144626
10
#4144668
02
#4160000
0!
#4160826
0*
#4160999
0+
#4180000
1!
#4180720
1*
#4180907
1+
#4183272
1)!
1(!
1'!
0&!
#4183934
0/
#4183990
0,
#4184003
0.
#4184064
11
#4184074
1-
#4184610
1.
#4200000
0!
#4200826
0*
#4200999
0+
#4220000
1!
#4220720
1*
#4220907
1+
#4223272
0)!
#4224024
0-
#4224070
1,
#4224536
0.
#4240000
0!
#4240826
0*
#4240999
0+
#4260000
1!
#4260720
1*
#4260907
1+
#4263272
1)!
0(!
#4263990
0,
#4264074
1-
#4280000
0!
#4280826
0*
#4280999
0+
#4300000
1!
#4300720
1*
#4300907
1+
#4303272
0)!
#4304024
0-
#4304070
1,
#4304090
1/
#4304560
1.
#4304602
00
#4320000
0!
#4320826
0*
#4320999
0+
#4340000
1!
#4340720
1*
#4340907
1+
#4343272
1)!
1(!
0'!
#4343934
0/
#4343990
0,
#4344003
0.
#4344074
1-
#4344610
1.
#4360000
0!
#4360826
0*
#4360999
0+
#4380000
1!
#4380720
1*
#4380907
1+
#4383272
0)!
#4384024
0-
#4384070
1,
#4384536
0.
#4400000
0!
#4400826
0*
#4400999
0+
#4420000
1!
#4420720
1*
#4420907
1+
#4423272
1)!
0(!
#4423990
0,
#4424074
1-
#4440000
0!
#4440826
0*
#4440999
0+
#4460000
1!
#4460720
1*
#4460907
1+
#4463272
0)!
#4464024
0-
#4464058
1i
#4464070
1,
#4464090
1/
#4464156
01
#4464222
13
#4464560
1.
#4464626
10
#4464692
12
#4464734
04
#4480000
0!
#4480826
0*
#4480999
0+
#4500000
1!
#4500720
1*
#4500907
1+
#4503272
1)!
1(!
1'!
1&!
0%!
#4503812
0i
#4503934
0/
#4503937
03
#4503990
0,
#4504003
0.
#4504008
02
#4504064
11
#4504074
1-
#4504600
12
#4504610
1.
#4520000
0!
#4520826
0*
#4520999
0+
#4540000
1!
#4540720
1*
#4540907
1+
#4543272
0)!
#4544024
0-
#4544070
1,
#4544536
0.
#4560000
0!
#4560826
0*
#4560999
0+
#4580000
1!
#4580720
1*
#4580907
1+
#4583272
1)!
0(!
#4583990
0,
#4584074
1-
#4600000
0!
#4600826
0*
#4600999
0+
#4620000
1!
#4620720
1*
#4620907
1+
#4623272
0)!
#4624024
0-
#4624070
1,
#4624090
1/
#4624560
1.
#4624602
00
#4640000
0!
#4640826
0*
#4640999
0+
#4660000
1!
#4660720
1*
#4660907
1+
#4663272
1)!
1(!
0'!
#4663934
0/
#4663990
0,
#4664003
0.
#4664074
1-
#4664610
1.
#4680000
0!
#4680826
0*
#4680999
0+
#4700000
1!
#4700720
1*
#4700907
1+
#4703272
0)!
#4704024
0-
#4704070
1,
#4704536
0.
#4720000
0!
#4720826
0*
#4720999
0+
#4740000
1!
#4740720
1*
#4740907
1+
#4743272
1)!
0(!
#4743990
0,
#4744074
1-
#4760000
0!
#4760826
0*
#4760999
0+
#4780000
1!
#4780720
1*
#4780907
1+
#4783272
0)!
#4784024
0-
#4784070
1,
#4784090
1/
#4784156
01
#4784560
1.
#4784626
10
#4784668
02
#4800000
0!
#4800826
0*
#4800999
0+
#4820000
1!
#4820720
1*
#4820907
1+
#4823272
1)!
1(!
1'!
0&!
#4823934
0/
#4823990
0,
#4824003
0.
#4824064
11
#4824074
1-
#4824610
1.
#4840000
0!
#4840826
0*
#4840999
0+
