0221/simulation/qsim/test.msim.vcd
$comment
	File created using the following command:
		vcd file test.msim.vcd -direction
$end
$date
	Wed Apr 17 17:28:43 2019
$end
$version
	ModelSim Version 10.5b
$end
$timescale
	1ps
$end

$scope module test_vlg_vec_tst $end
$var reg 1 ! a $end
$var reg 1 " b $end
$var reg 1 # key_in $end
$var wire 1 $ led_out $end

$scope module i1 $end
$var wire 1 % gnd $end
$var wire 1 & vcc $end
$var wire 1 ' unknown $end
$var tri1 1 ( devclrn $end
$var tri1 1 ) devpor $end
$var tri1 1 * devoe $end
$var wire 1 + led_out~output_o $end
$var wire 1 , a~input_o $end
$var wire 1 - key_in~input_o $end
$var wire 1 . b~input_o $end
$var wire 1 / led_out~0_combout $end
$upscope $end
$upscope $end
$enddefinitions $end
#0
$dumpvars
0!
0"
0#
x$
0%
1&
x'
1(
1)
1*
x+
0,
0-
0.
x/
$end
#3470
0/
#5000
1!
#5650
1,
#7011
0+
0$
#8880
1/
#10000
0!
#10756
0,
#12461
1+
1$
#14226
0/
#15000
1!
#15650
1,
#17767
0+
0$
#18880
1/
#20000
0!
#20756
0,
#22461
1+
1$
#24226
0/
#25000
1!
#25650
1,
#27767
0+
0$
#28880
1/
#30000
0!
#30756
0,
#32461
1+
1$
#34226
0/
#35000
1!
#35650
1,
#37767
0+
0$
#38880
1/
#40000
0!
#40756
0,
#42461
1+
1$
#44226
0/
#45000
1!
#45650
1,
#47767
0+
0$
#48880
1/
#50000
1#
0!
#50640
1-
#50756
0,
#52461
1+
1$
#53842
0/
#55000
1!
#55650
1,
#57383
0+
0$
#60000
0!
#60756
0,
#65000
1!
#65650
1,
#70000
0!
#70756
0,
#75000
1!
#75650
1,
#80000
0!
#80756
0,
#85000
1!
#85650
1,
#90000
0!
#90756
0,
#95000
1!
#95650
1,
#100000
0#
0!
#100746
0-
#100756
0,
#105000
1!
#105650
1,
#108880
1/
#110000
0!
#110756
0,
#112461
1+
1$
#114226
0/
#115000
1!
#115650
1,
#117767
0+
0$
#118880
1/
#120000
0!
#120756
0,
#122461
1+
1$
#124226
0/
#125000
1!
#125650
1,
#127767
0+
0$
#128880
1/
#130000
0!
#130756
0,
#132461
1+
1$
#134226
0/
#135000
1!
#135650
1,
#137767
0+
0$
#138880
1/
#140000
0!
#140756
0,
#142461
1+
1$
#144226
0/
#145000
1!
#145650
1,
#147767
0+
0$
#148880
1/
#150000
1#
0!
#150640
1-
#150756
0,
#152461
1+
1$
#153842
0/
#155000
1!
#155650
1,
#157383
0+
0$
#160000
0!
#160756
0,
#165000
1!
#165650
1,
#170000
0!
#170756
0,
#175000
1!
#175650
1,
#180000
0!
#180756
0,
#185000
1!
#185650
1,
#190000
0!
#190756
0,
#195000
1!
#195650
1,
#200000
0#
0!
#200746
0-
#200756
0,
#205000
1!
#205650
1,
#208880
1/
#210000
0!
#210756
0,
#212461
1+
1$
#214226
0/
#215000
1!
#215650
1,
#217767
0+
0$
#218880
1/
#220000
0!
#220756
0,
#222461
1+
1$
#224226
0/
#225000
1!
#225650
1,
#227767
0+
0$
#228880
1/
#230000
0!
#230756
0,
#232461
1+
1$
#234226
0/
#235000
1!
#235650
1,
#237767
0+
0$
#238880
1/
#240000
0!
#240756
0,
#242461
1+
1$
#244226
0/
#245000
1!
#245650
1,
#247767
0+
0$
#248880
1/
#250000
1#
0!
#250640
1-
#250756
0,
#252461
1+
1$
#253842
0/
#255000
1!
#255650
1,
#257383
0+
0$
#260000
0!
#260756
0,
#265000
1!
#265650
1,
#270000
0!
#270756
0,
#275000
1!
#275650
1,
#280000
0!
#280756
0,
#285000
1!
#285650
1,
#290000
0!
#290756
0,
#295000
1!
#295650
1,
#300000
0#
0!
#300746
0-
#300756
0,
#305000
1!
#305650
1,
#308880
1/
#310000
0!
#310756
0,
#312461
1+
1$
#314226
0/
#315000
1!
#315650
1,
#317767
0+
0$
#318880
1/
#320000
0!
#320756
0,
#322461
1+
1$
#324226
0/
#325000
1!
#325650
1,
#327767
0+
0$
#328880
1/
#330000
0!
#330756
0,
#332461
1+
1$
#334226
0/
#335000
1!
#335650
1,
#337767
0+
0$
#338880
1/
#340000
0!
#340756
0,
#342461
1+
1$
#344226
0/
#345000
1!
#345650
1,
#347767
0+
0$
#348880
1/
#350000
1#
0!
#350640
1-
#350756
0,
#352461
1+
1$
#353842
0/
#355000
1!
#355650
1,
#357383
0+
0$
#360000
0!
#360756
0,
#365000
1!
#365650
1,
#370000
0!
#370756
0,
#375000
1!
#375650
1,
#380000
0!
#380756
0,
#385000
1!
#385650
1,
#390000
0!
#390756
0,
#395000
1!
#395650
1,
#400000
0#
0!
#400746
0-
#400756
0,
#405000
1!
#405650
1,
#408880
1/
#410000
0!
#410756
0,
#412461
1+
1$
#414226
0/
#415000
1!
#415650
1,
#417767
0+
0$
#418880
1/
#420000
0!
#420756
0,
#422461
1+
1$
#424226
0/
#425000
1!
#425650
1,
#427767
0+
0$
#428880
1/
#430000
0!
#430756
0,
#432461
1+
1$
#434226
0/
#435000
1!
#435650
1,
#437767
0+
0$
#438880
1/
#440000
0!
#440756
0,
#442461
1+
1$
#444226
0/
#445000
1!
#445650
1,
#447767
0+
0$
#448880
1/
#450000
1#
0!
#450640
1-
#450756
0,
#452461
1+
1$
#453842
0/
#455000
1!
#455650
1,
#457383
0+
0$
#460000
0!
#460756
0,
#465000
1!
#465650
1,
#470000
0!
#470756
0,
#475000
1!
#475650
1,
#480000
0!
#480756
0,
#485000
1!
#485650
1,
#490000
0!
#490756
0,
#495000
1!
#495650
1,
#500000
0#
0!
#500746
0-
#500756
0,
#505000
1!
#505650
1,
#508880
1/
#510000
0!
#510756
0,
#512461
1+
1$
#514226
0/
#515000
1!
#515650
1,
#517767
0+
0$
#518880
1/
#520000
0!
#520756
0,
#522461
1+
1$
#524226
0/
#525000
1!
#525650
1,
#527767
0+
0$
#528880
1/
#530000
0!
#530756
0,
#532461
1+
1$
#534226
0/
#535000
1!
#535650
1,
#537767
0+
0$
#538880
1/
#540000
0!
#540756
0,
#542461
1+
1$
#544226
0/
#545000
1!
#545650
1,
#547767
0+
0$
#548880
1/
#550000
1#
0!
#550640
1-
#550756
0,
#552461
1+
1$
#553842
0/
#555000
1!
#555650
1,
#557383
0+
0$
#560000
0!
#560756
0,
#565000
1!
#565650
1,
#570000
0!
#570756
0,
#575000
1!
#575650
1,
#580000
0!
#580756
0,
#585000
1!
#585650
1,
#590000
0!
#590756
0,
#595000
1!
#595650
1,
#600000
0#
0!
#600746
0-
#600756
0,
#605000
1!
#605650
1,
#608880
1/
#610000
0!
#610756
0,
#612461
1+
1$
#614226
0/
#615000
1!
#615650
1,
#617767
0+
0$
#618880
1/
#620000
0!
#620756
0,
#622461
1+
1$
#624226
0/
#625000
1!
#625650
1,
#627767
0+
0$
#628880
1/
#630000
0!
#630756
0,
#632461
1+
1$
#634226
0/
#635000
1!
#635650
1,
#637767
0+
0$
#638880
1/
#640000
0!
#640756
0,
#642461
1+
1$
#644226
0/
#645000
1!
#645650
1,
#647767
0+
0$
#648880
1/
#650000
1#
0!
#650640
1-
#650756
0,
#652461
1+
1$
#653842
0/
#655000
1!
#655650
1,
#657383
0+
0$
#660000
0!
#660756
0,
#665000
1!
#665650
1,
#670000
0!
#670756
0,
#675000
1!
#675650
1,
#680000
0!
#680756
0,
#685000
1!
#685650
1,
#690000
0!
#690756
0,
#695000
1!
#695650
1,
#700000
0#
0!
#700746
0-
#700756
0,
#705000
1!
#705650
1,
#708880
1/
#710000
0!
#710756
0,
#712461
1+
1$
#714226
0/
#715000
1!
#715650
1,
#717767
0+
0$
#718880
1/
#720000
0!
#720756
0,
#722461
1+
1$
#724226
0/
#725000
1!
#725650
1,
#727767
0+
0$
#728880
1/
#730000
0!
#730756
0,
#732461
1+
1$
#734226
0/
#735000
1!
#735650
1,
#737767
0+
0$
#738880
1/
#740000
0!
#740756
0,
#742461
1+
1$
#744226
0/
#745000
1!
#745650
1,
#747767
0+
0$
#748880
1/
#750000
1#
0!
#750640
1-
#750756
0,
#752461
1+
1$
#753842
0/
#755000
1!
#755650
1,
#757383
0+
0$
#760000
0!
#760756
0,
#765000
1!
#765650
1,
#770000
0!
#770756
0,
#775000
1!
#775650
1,
#780000
0!
#780756
0,
#785000
1!
#785650
1,
#790000
0!
#790756
0,
#795000
1!
#795650
1,
#800000
0#
0!
#800746
0-
#800756
0,
#805000
1!
#805650
1,
#808880
1/
#810000
0!
#810756
0,
#812461
1+
1$
#814226
0/
#815000
1!
#815650
1,
#817767
0+
0$
#818880
1/
#820000
0!
#820756
0,
#822461
1+
1$
#824226
0/
#825000
1!
#825650
1,
#827767
0+
0$
#828880
1/
#830000
0!
#830756
0,
#832461
1+
1$
#834226
0/
#835000
1!
#835650
1,
#837767
0+
0$
#838880
1/
#840000
0!
#840756
0,
#842461
1+
1$
#844226
0/
#845000
1!
#845650
1,
#847767
0+
0$
#848880
1/
#850000
1#
0!
#850640
1-
#850756
0,
#852461
1+
1$
#853842
0/
#855000
1!
#855650
1,
#857383
0+
0$
#860000
0!
#860756
0,
#865000
1!
#865650
1,
#870000
0!
#870756
0,
#875000
1!
#875650
1,
#880000
0!
#880756
0,
#885000
1!
#885650
1,
#890000
0!
#890756
0,
#895000
1!
#895650
1,
#900000
0#
0!
#900746
0-
#900756
0,
#905000
1!
#905650
1,
#908880
1/
#910000
0!
#910756
0,
#912461
1+
1$
#914226
0/
#915000
1!
#915650
1,
#917767
0+
0$
#918880
1/
#920000
0!
#920756
0,
#922461
1+
1$
#924226
0/
#925000
1!
#925650
1,
#927767
0+
0$
#928880
1/
#930000
0!
#930756
0,
#932461
1+
1$
#934226
0/
#935000
1!
#935650
1,
#937767
0+
0$
#938880
1/
#940000
0!
#940756
0,
#942461
1+
1$
#944226
0/
#945000
1!
#945650
1,
#947767
0+
0$
#948880
1/
#950000
1#
0!
#950640
1-
#950756
0,
#952461
1+
1$
#953842
0/
#955000
1!
#955650
1,
#957383
0+
0$
#960000
0!
#960756
0,
#965000
1!
#965650
1,
#970000
0!
#970756
0,
#975000
1!
#975650
1,
#980000
0!
#980756
0,
#985000
1!
#985650
1,
#990000
0!
#990756
0,
#995000
1!
#995650
1,
